<?xml version="1.0" encoding="UTF-8"?>
<svg width="22px" height="22px" viewBox="0 0 22 22" version="1.1" xmlns="http://www.w3.org/2000/svg" xmlns:xlink="http://www.w3.org/1999/xlink">
    <!-- Generator: Sketch 51.1 (57501) - http://www.bohemiancoding.com/sketch -->
    <title>close</title>
    <desc>Created with Sketch.</desc>
    <defs></defs>
    <g id="Page-1" stroke="none" stroke-width="1" fill="none" fill-rule="evenodd">
        <g id="personal-data-edit" transform="translate(-1176.000000, -307.000000)" fill="#ff4433" fill-rule="nonzero">
            <g id="Group-21" transform="translate(181.000000, 103.000000)">
                <g id="Group-22" transform="translate(340.000000, 190.000000)">
                    <path d="M666.006248,24.2991413 L675.658943,14.6464466 C675.854205,14.4511845 676.170787,14.4511845 676.366049,14.6464466 C676.561312,14.8417088 676.561312,15.1582912 676.366049,15.3535534 L666.713355,25.006248 L676.366049,34.6589427 C676.561312,34.8542049 676.561312,35.1707873 676.366049,35.3660495 C676.170787,35.5613116 675.854205,35.5613116 675.658943,35.3660495 L666.006248,25.7133548 L656.353553,35.3660495 C656.158291,35.5613116 655.841709,35.5613116 655.646447,35.3660495 C655.451184,35.1707873 655.451184,34.8542049 655.646447,34.6589427 L665.299141,25.006248 L655.646447,15.3535534 C655.451184,15.1582912 655.451184,14.8417088 655.646447,14.6464466 C655.841709,14.4511845 656.158291,14.4511845 656.353553,14.6464466 L666.006248,24.2991413 Z" id="close"></path>
                </g>
            </g>
        </g>
    </g>
</svg>